energy [eV],att length wls [m]
1.7739932539014591,251.999672
1.7794719686867562,251.999672
1.7910369603287395,251.999672
1.8052024797946231,251.999672
1.828410684847134,251.999672
1.8547806250005625,251.999672
1.877216364055105,251.999672
1.898796550418123,251.999672
1.916006378704122,251.999672
1.9350151228437826,251.999672
1.9565929375807074,251.999672
1.9845890352733,251.999672
1.9846059865609202,251.999672
2.010267401643169,251.999672
2.02018693444298,251.999672
2.0255226582937444,251.999672
2.026194337033894,251.999672
2.0301209041757953,251.999672
2.038654511806436,251.999672
2.048223999300764,251.999672
2.0587384010446548,251.999672
2.071146245059413,251.999672
2.072599588262982,251.999672
2.104949027608316,251.999672
2.109884400571582,251.999672
2.1408394439695897,251.999672
2.15695126809191,251.999672
2.1779335847398675,251.999672
2.1954318151103194,251.999672
2.215428667809977,251.999672
2.23162522324508,251.999672
2.254232461062641,251.999672
2.267131891137458,251.999672
2.2963820440343206,251.999672
2.309682923361441,251.99967191841347
2.309682923361441,251.99967183682693
2.316471628291168,173.2614624507021
2.333829383342739,94.52325306457729
2.3386121508781494,55.15414837151487
2.3386121508781494,15.785043678452455
2.3610465116277113,10.677213151758806
2.3610465116277113,5.569382625065158
2.369478721342543,4.107024056986658
2.376591075347657,2.6446654889081582
2.376591075347657,2.066824793823444
2.395516885414944,1.4889840987387295
2.395516885414944,1.3426625218327797
2.406116126121572,1.1963409449268299
2.416902246689499,0.9036977911149302
2.416902246689499,0.8497277448433936
2.4335937570683583,0.7957576985718571
2.443074146488179,0.687817606028784
2.443074146488179,0.6710649532609199
2.448026888777125,0.6543123004930557
2.455643586002947,0.6375596477251915
2.456826019617966,0.6208069949573274
2.4634706694678634,0.587301689421599
2.4765970422318664,0.5705490366537349
2.4765970422318664,0.5537963838858707
2.5064033328189126,0.5226100667211168
2.5064033328189126,0.49142374955636287
2.5321901792670816,0.5244588200341486
2.5321901792670816,0.5574938905119343
2.550155120559553,0.6127102199931189
2.552482715273188,0.6679265494743036
2.552482715273188,0.5576194428928483
2.570659914543656,0.4473123363113928
2.570659914543656,0.3584701208091407
2.594059405940445,0.2696279053068886
2.594059405940445,0.18078568980463652
2.6151200832474277,0.2843317097218786
2.6166237113401642,0.3878777296391207
2.6166237113401642,0.49142374955636287
2.630607287449542,0.5896206777925734
2.630607287449542,0.687817606028784
2.6460335559535877,0.8233986814566474
2.6460335559535877,0.958979756884511
2.659027664102118,1.0714432836220373
2.659027664102118,1.1839068103595638
2.6643847179809406,1.3443263589089067
2.6721500246752123,1.5047459074582497
2.6721500246752123,1.6651654560075926
2.6894039735097954,2.54662908463518
2.6894039735097954,3.0180204392033634
2.711447171954865,3.4894117937715468
2.7163879598663434,3.96080314833973
2.7163879598663434,4.4321945029079135
2.7655443963700637,6.085826565751974
2.770595258400118,7.739458628596035
2.770595258400118,9.393090691440095
2.8040187464078627,12.407977351592349
2.823195584860681,15.422864011744604
2.8335914098638253,18.437750671896858
2.8403567057176735,21.45263733204911
2.8403567057176735,21.45263733204911
2.8869388998529746,21.45263733204911
2.9514436151808794,21.45263733204911
2.9796742905935028,21.45263733204911
3.002102517847018,21.45263733204911
3.019715161375479,21.45263733204911
3.0401327101190154,21.45263733204911
3.0621624649009074,21.45263733204911
3.0885728018321825,21.45263733204911
3.136050226224109,21.45263733204911
3.219758063711191,21.45263733204911
3.3597967096763703,21.45263733204911
